@startuml
class ClipNode <<sealed>> {
    + <<override>> OnInputPortConnected(portId:int, otherNodeId:int, otherPortId:int, activateNode:bool) : void
    + <<override>> OnConnectedOutputNodeChanges(outputPortId:int, otherNodeId:int, otherPortId:int, name:string, type:WirePortDataType) : void
    UpdatePortConnection(portId:int) : void
    + <<override>> OnInputPortDisconnected(portId:int) : void
    + <<override>> GenerateShaderForOutput(outputId:int, dataCollector:MasterNodeDataCollector, ignoreLocalvar:bool) : string
}
ParentNode <|-- ClipNode
@enduml
