@startuml
class DdxOpNode <<sealed>> {
    + <<override>> GenerateShaderForOutput(outputId:int, dataCollector:MasterNodeDataCollector, ignoreLocalvar:bool) : string
}
SingleInputOp <|-- DdxOpNode
@enduml
