@startuml
class DotProductOpNode <<sealed>> {
    + <<override>> BuildResults(outputId:int, dataCollector:MasterNodeDataCollector, ignoreLocalvar:bool) : string
}
DynamicTypeNode <|-- DotProductOpNode
@enduml
