@startuml
class FallbackTexture {
    + FallbackTexture()
    + FallbackTexture(data:Texture)
    + Revert() : void
    + <<override>> ToString() : string
}
IFallbackVars <|-- FallbackTexture
FallbackTexture --> "Current" Texture
@enduml
