@startuml
class FallbackVector4 {
    + FallbackVector4()
    + FallbackVector4(data:Vector4)
    + Revert() : void
    + <<override>> ToString() : string
}
IFallbackVars <|-- FallbackVector4
FallbackVector4 --> "Current" Vector4
@enduml
