@startuml
class TemplateOptionPortItem {
    + TemplateOptionPortItem(owner:TemplateMultiPassMasterNode, options:TemplateOptionsItem)
    + FillDataCollector(owner:TemplateMultiPassMasterNode, dataCollector:MasterNodeDataCollector) : void
    + SubShaderFillDataCollector(owner:TemplateMultiPassMasterNode, dataCollector:MasterNodeDataCollector) : void
    + CheckImediateActionsForPort(owner:TemplateMultiPassMasterNode, portId:int) : void
}
TemplateOptionPortItem --> "Options" TemplateOptionsItem
@enduml
