@startuml
class TemplateOptionsDefinesContainer {
    Refresh() : void
    + RemoveTemporaries() : void
    + AddDefine(define:string, temporary:bool) : void
    + RemoveDefine(define:string) : void
    + Destroy() : void
}
class "List`1"<T> {
}
TemplateOptionsDefinesContainer --> "DefinesList<PropertyDataCollector>" "List`1"
@enduml
