@startuml
class TemplateShaderModelModule <<sealed>> {
    + TemplateShaderModelModule()
    + <<override>> Draw(owner:UndoParentNode, style:bool) : void
    + CopyFrom(other:TemplateShaderModelModule, allData:bool) : void
    + <<override>> ReadFromString(index:uint, nodeParams:string[]) : void
    + <<override>> WriteToString(nodeInfo:string) : void
    + <<override>> GenerateShaderData(isSubShader:bool) : string
    + ConfigureFromTemplateData(data:TemplateShaderModelData) : void
    + CurrentShaderModelIdx : int <<get>>
    + CurrentShaderModel : string <<get>>
    + EncapsulateOnCGInlude : bool <<get>>
    + InterpolatorAmount : int <<get>>
}
TemplateModuleParent <|-- TemplateShaderModelModule
@enduml
