@startuml
class TemplateOptionsUIHelper {
    + TemplateOptionsUIHelper(isSubShader:bool)
    + Destroy() : void
    + DrawCustomOptions(owner:TemplateMultiPassMasterNode) : void
    + DrawCustomOptionsBlock() : void
    + OnCustomOptionSelected(isRefreshing:bool, invertAction:bool, owner:TemplateMultiPassMasterNode, uiItem:TemplateOptionUIItem, validActions:TemplateActionItem[]) : void
    + SetupCustomOptionsFromTemplate(owner:TemplateMultiPassMasterNode, newTemplate:bool) : void
    + SetCustomOptionsInfo(masterNode:TemplateMultiPassMasterNode, dataCollector:MasterNodeDataCollector) : void
    + CheckImediateActionsForPort(masterNode:TemplateMultiPassMasterNode, portId:int) : void
    + SetSubShaderCustomOptionsPortsInfo(masterNode:TemplateMultiPassMasterNode, dataCollector:MasterNodeDataCollector) : void
    + RefreshCustomOptionsDict() : void
    + ReadFromString(index:uint, nodeParams:string[]) : void
    + SetReadOptions() : void
    + Refresh() : void
    + CheckDisable() : void
    + WriteToString(nodeInfo:string) : void
    + HasCustomOptions : bool <<get>>
}
class "List`1"<T> {
}
TemplateOptionsUIHelper --> "PassCustomOptionsUI<TemplateOptionUIItem>" "List`1"
@enduml
