@startuml
class TemplateMasterNode <<sealed>> {
    + <<override>> ReleaseResources() : void
    + <<override>> OnEnable() : void
    FetchInfoFromTemplate() : void
    FetchCurrentTemplate() : void
    + <<override>> RefreshAvailableCategories() : void
    SetCategoryIdxFromTemplate() : void
    + SetTemplate(newTemplate:TemplateData, writeDefaultData:bool, fetchMasterNodeCategory:bool) : void
    RegisterProperties() : void
    + <<override>> DrawProperties() : void
    + DrawGeneralOptions() : void
    CreateInstructionsForList(ports:List<InputPort>, shaderBody:string, vertexInstructions:List<string>, fragmentInstructions:List<string>) : bool
    + <<override>> Draw(drawInfo:DrawInfo) : void
    + <<override>> UpdateFromShader(newShader:Shader) : void
    + <<override>> UpdateMasterNodeMaterial(material:Material) : void
    + <<override>> Execute(pathname:string, isFullPath:bool) : Shader
    + <<override>> ReadFromString(nodeParams:string[]) : void
    + <<override>> WriteToString(nodeInfo:string, connectionsInfo:string) : void
    + <<override>> Destroy() : void
}
MasterNode <|-- TemplateMasterNode
TemplateMasterNode --> "CurrentTemplate" TemplateData
@enduml
