@startuml
enum AdditionalLineType {
    Include,
    Define,
    Pragma,
    Custom,
}
enum AdditionalContainerOrigin {
    Native,
    ShaderFunction,
    Custom,
}
class AdditionalDirectiveContainerSaveItem {
    + LineValue : string
    + GUIDToggle : bool = false
    + GUIDValue : string
    + AdditionalDirectiveContainerSaveItem(lineType:AdditionalLineType, lineValue:string, guidToggle:bool, guidValue:string, origin:AdditionalContainerOrigin)
    + AdditionalDirectiveContainerSaveItem(container:AdditionalDirectiveContainer)
}
class AdditionalDirectiveContainer {
    + LineValue : string
    + GUIDToggle : bool = false
    + GUIDValue : string
    + Init(item:AdditionalDirectiveContainerSaveItem) : void
    + OnDestroy() : void
    + Value : string <<get>>
    + FormattedValue : string <<get>>
}
enum ReordableAction {
    None,
    Add,
    Remove,
}
class TemplateAdditionalDirectivesHelper <<sealed>> {
    + TemplateAdditionalDirectivesHelper(moduleName:string)
    + AddShaderFunctionItems(functionList:List<AdditionalDirectiveContainer>) : void
    + RemoveShaderFunctionItems(functionList:List<AdditionalDirectiveContainer>) : void
    + AddItems(type:AdditionalLineType, items:List<string>) : void
    + AddNativeContainer() : void
    + FillNativeItems(nativeItems:List<string>) : void
    DrawNativeItems() : void
    DrawNativeItemsRect() : void
    DrawButtons() : void
    + <<override>> Draw(currOwner:UndoParentNode, style:bool) : void
    DrawReordableList() : void
    + AddAllToDataCollector(dataCollector:MasterNodeDataCollector, nativesContainer:TemplateIncludePragmaContainter) : void
    + AddAllToDataCollector(dataCollector:MasterNodeDataCollector) : void
    AddToDataCollector(dataCollector:MasterNodeDataCollector, nativesContainer:TemplateIncludePragmaContainter, fromSF:bool) : void
    AddToDataCollector(dataCollector:MasterNodeDataCollector, fromSF:bool) : void
    + <<override>> ReadFromString(index:uint, nodeParams:string[]) : void
    + <<override>> WriteToString(nodeInfo:string) : void
    + UpdateSaveItemsFromDirectives() : void
    + CleanNullDirectives() : void
    + ResetDirectivesOrigin() : void
    + UpdateDirectivesFromSaveItems() : void
    UpdateNativeIndex() : void
    + <<override>> Destroy() : void
    + IsValid : bool <<get>> <<set>>
}
class "List`1"<T> {
}
AdditionalDirectiveContainerSaveItem o-> "LineType" AdditionalLineType
AdditionalDirectiveContainerSaveItem o-> "Origin" AdditionalContainerOrigin
ScriptableObject <|-- AdditionalDirectiveContainer
AdditionalDirectiveContainer o-> "LineType" AdditionalLineType
AdditionalDirectiveContainer o-> "Origin" AdditionalContainerOrigin
AdditionalDirectiveContainer o-> "LibObject" TextAsset
TemplateModuleParent <|-- TemplateAdditionalDirectivesHelper
TemplateAdditionalDirectivesHelper --> "DirectivesList<AdditionalDirectiveContainer>" "List`1"
@enduml
