@startuml
class ScreenPosInputsNode <<sealed>> {
    + <<override>> Draw(drawInfo:DrawInfo) : void
    + <<override>> DrawProperties() : void
    ConfigureHeader() : void
    + <<override>> Reset() : void
    + <<override>> Destroy() : void
    + <<override>> GenerateShaderForOutput(outputId:int, dataCollector:MasterNodeDataCollector, ignoreLocalVar:bool) : string
    + <<override>> ReadFromString(nodeParams:string[]) : void
    + <<override>> WriteToString(nodeInfo:string, connectionsInfo:string) : void
}
SurfaceShaderINParentNode <|-- ScreenPosInputsNode
@enduml
