@startuml
class SurfaceShaderINParentNode {
    + <<override>> DrawProperties() : void
    + <<override>> GenerateShaderForOutput(outputId:int, dataCollector:MasterNodeDataCollector, ignoreLocalVar:bool) : string
}
ParentNode <|-- SurfaceShaderINParentNode
@enduml
