@startuml
class WorldPosInputsNode <<sealed>> {
    + <<override>> DrawProperties() : void
    + <<override>> GenerateShaderForOutput(outputId:int, dataCollector:MasterNodeDataCollector, ignoreLocalVar:bool) : string
}
SurfaceShaderINParentNode <|-- WorldPosInputsNode
@enduml
