@startuml
class WorldSpaceCameraPos <<sealed>> {
    + <<override>> GenerateShaderForOutput(outputId:int, dataCollector:MasterNodeDataCollector, ignoreLocalvar:bool) : string
}
ConstantShaderVariable <|-- WorldSpaceCameraPos
@enduml
