@startuml
class RotatorNode <<sealed>> {
    + <<override>> SetPreviewInputs() : void
    + <<override>> GenerateShaderForOutput(outputId:int, dataCollector:MasterNodeDataCollector, ignoreLocalvar:bool) : string
    + <<override>> RefreshExternalReferences() : void
}
ParentNode <|-- RotatorNode
@enduml
