@startuml
class TFHCPixelate <<sealed>> {
    + <<override>> DrawProperties() : void
    + <<override>> GenerateShaderForOutput(outputId:int, dataCollector:MasterNodeDataCollector, ignoreLocalvar:bool) : string
}
ParentNode <|-- TFHCPixelate
@enduml
