@startuml
class SwitchByFaceNode {
    + <<override>> GenerateShaderForOutput(outputId:int, dataCollector:MasterNodeDataCollector, ignoreLocalvar:bool) : string
}
DynamicTypeNode <|-- SwitchByFaceNode
@enduml
