@startuml
class DecodeLightmapHlpNode <<sealed>> {
    + <<override>> GetIncludes() : string
    + <<override>> GenerateShaderForOutput(outputId:int, dataCollector:MasterNodeDataCollector, ignoreLocalvar:bool) : string
}
ParentNode <|-- DecodeLightmapHlpNode
@enduml
