@startuml
class OptionsWindow {
    + OptionsWindow(parentWindow:AmplifyShaderEditorWindow)
    + Init() : void
    + Destroy() : void
    + Save() : void
    + Load() : void
    + ColoredPorts : bool <<get>> <<set>>
    + MultiLinePorts : bool <<get>> <<set>>
}
OptionsWindow --> "ParentWindow" AmplifyShaderEditorWindow
@enduml
