@startuml
class CustomNodeOutputData {
    + expression : string
    + name : string
    + CustomNodeOutputData(newName:string, newExpression:string)
    + Destroy() : void
    + <<override>> ToString() : string
}
class CustomNodeInputData {
    + index : int
    + length : int
    + name : string
    + CustomNodeInputData(newIndex:int, newLength:int, newName:string)
    + <<override>> ToString() : string
}
class CustomNode {
    + AddIncludes(newInclude:string) : void
    + <<override>> GenerateShaderForOutput(outputId:int, dataCollector:MasterNodeDataCollector, ignoreLocalvar:bool) : string
    + DumpOutputData() : void
    + <<override>> Destroy() : void
}
class "List`1"<T> {
}
CustomNodeOutputData --> "inputData<CustomNodeInputData>" "List`1"
ParentNode <|-- CustomNode
@enduml
