@startuml
class NodeRestrictionsData {
    + NodeRestrictionsData()
    + NodeRestrictionsData(port:int)
    + SetAllPortRestiction(value:bool) : void
    + AddRestriction(port:int) : void
    + RemoveRestriction(port:int) : void
    + IsPortRestricted(port:int) : bool
    + Destroy() : void
    + AllPortsRestricted : bool <<get>>
}
class NodeRestrictions {
    + NodeRestrictions()
    + AddTypeRestriction(type:System.Type) : void
    + AddPortRestriction(type:System.Type, port:int) : void
    + GetRestiction(type:System.Type, port:int) : bool
    + Destroy() : void
}
@enduml
