@startuml
enum InverseTangentType {
    Fast,
    Precise,
}
class TransformDirectionNode <<sealed>> {
    + <<override>> DrawProperties() : void
    + <<override>> PropagateNodeData(nodeData:NodeData, dataCollector:MasterNodeDataCollector) : void
    CalculateTransform(from:TransformSpace, to:TransformSpace, dataCollector:MasterNodeDataCollector, varName:string, result:string) : void
    + <<override>> GenerateShaderForOutput(outputId:int, dataCollector:MasterNodeDataCollector, ignoreLocalvar:bool) : string
    + <<override>> ReadFromString(nodeParams:string[]) : void
    + <<override>> WriteToString(nodeInfo:string, connectionsInfo:string) : void
}
ParentNode <|-- TransformDirectionNode
@enduml
