@startuml
class BillboardNode <<sealed>> {
    + <<override>> Destroy() : void
    + <<override>> AfterCommonInit() : void
    + <<override>> Draw(drawInfo:DrawInfo) : void
    + <<override>> DrawProperties() : void
    + <<override>> GenerateShaderForOutput(outputId:int, dataCollector:MasterNodeDataCollector, ignoreLocalvar:bool) : string
    + <<override>> ReadFromString(nodeParams:string[]) : void
    + <<override>> WriteToString(nodeInfo:string, connectionsInfo:string) : void
}
ParentNode <|-- BillboardNode
BillboardNode --> "Type" BillboardType
@enduml
