@startuml
class TangentSignVertexDataNode <<sealed>> {
    + <<override>> GenerateShaderForOutput(outputId:int, dataCollector:MasterNodeDataCollector, ignoreLocalVar:bool) : string
}
ParentNode <|-- TangentSignVertexDataNode
@enduml
