@startuml
class TexCoordVertexDataNode <<sealed>> {
    + <<override>> DrawProperties() : void
    + <<override>> Draw(drawInfo:DrawInfo) : void
    + <<override>> GenerateShaderForOutput(outputId:int, dataCollector:MasterNodeDataCollector, ignoreLocalVar:bool) : string
    {static} + GenerateFragUVs(dataCollector:MasterNodeDataCollector, uniqueId:int, index:int, propertyName:string, size:WirePortDataType) : string
    {static} + GenerateVertexUVs(dataCollector:MasterNodeDataCollector, uniqueId:int, index:int, propertyName:string, size:WirePortDataType) : string
    + <<override>> ReadFromString(nodeParams:string[]) : void
    + <<override>> WriteToString(nodeInfo:string, connectionsInfo:string) : void
    + <<override>> PropagateNodeData(nodeData:NodeData, dataCollector:MasterNodeDataCollector) : void
}
VertexDataNode <|-- TexCoordVertexDataNode
@enduml
