@startuml
class NodeDescriptionInfo {
    + FoldoutValue : bool
    + Category : string
}
class PortLegendInfo <<sealed>> {
    + {static} OpenWindow() : PortLegendInfo
    + Init() : void
    DrawPort(type:WirePortDataType) : void
    OnGUI() : void
    DrawPortInfo() : void
    + DrawEditorShortcuts() : void
    + DrawMenuShortcuts() : void
    DrawItem(name:string, description:string) : void
    + DrawNodesShortcuts() : void
    CreateCompatibilityString(source:string) : string
    + DrawCompatibleAssets() : void
    + DrawNodeDescriptions() : void
}
EditorWindow <|-- PortLegendInfo
@enduml
