@startuml
class AdditionalIncludesHelper {
    + Draw(owner:ParentNode) : void
    DrawButtons() : void
    DrawMainBody() : void
    + ReadFromString(index:uint, nodeParams:string[]) : void
    + WriteToString(nodeInfo:string) : void
    + AddToDataCollector(dataCollector:MasterNodeDataCollector) : void
    + Destroy() : void
}
class "List`1"<T> {
}
AdditionalIncludesHelper --> "IncludeList<string>" "List`1"
AdditionalIncludesHelper --> "OutsideList<string>" "List`1"
@enduml
