@startuml
class FunctionSwitchByPipeline <<sealed>> {
    + <<override>> OnInputPortConnected(portId:int, otherNodeId:int, otherPortId:int, activateNode:bool) : void
    + <<override>> OnConnectedOutputNodeChanges(outputPortId:int, otherNodeId:int, otherPortId:int, name:string, type:WirePortDataType) : void
    UpdateOutputPort() : void
    + <<override>> GenerateShaderForOutput(outputId:int, dataCollector:MasterNodeDataCollector, ignoreLocalvar:bool) : string
    + <<override>> RefreshExternalReferences() : void
}
ParentNode <|-- FunctionSwitchByPipeline
@enduml
