@startuml
enum ZWriteMode {
    On,
    Off,
}
enum ZTestMode {
    Less,
    Greater,
    LEqual,
    GEqual,
    Equal,
    NotEqual,
    Always,
}
class ZBufferOpHelper {
    + {static} <<readonly>> DepthParametersStr : string = " Depth"
    + {static} <<readonly>> ZWriteModeStr : string = "ZWrite Mode"
    + {static} <<readonly>> ZTestModeStr : string = "ZTest Mode"
    + {static} <<readonly>> OffsetStr : string = "Offset"
    + {static} <<readonly>> OffsetFactorStr : string = "Factor"
    + {static} <<readonly>> OffsetUnitsStr : string = "Units"
    + CreateDepthInfo(outlineZWrite:bool, outlineZTest:bool) : string
    + Draw(owner:UndoParentNode, toolbarstyle:GUIStyle, customBlendAvailable:bool) : void
    + DrawExtraDepthPass(shaderBody:string) : void
    + ReadFromString(index:uint, nodeParams:string[]) : void
    + WriteToString(nodeInfo:string) : void
    + IsActive : bool <<get>>
}
class "Dictionary`2"<T1,T2> {
}
ZBufferOpHelper o-> "ZTestModeDict<ZTestMode,int>" "Dictionary`2"
ZBufferOpHelper o-> "ZWriteModeDict<ZWriteMode,int>" "Dictionary`2"
ZBufferOpHelper --> "ParentSurface" StandardSurfaceOutputNode
@enduml
