@startuml
class ActionData {
    + <<virtual>> ExecuteForward() : void
    + <<virtual>> ExecuteReverse() : void
}
class CreateNodeActionData {
    + CreateNodeActionData(node:ParentNode)
    + CreateNodeActionData(nodeId:int, nodeType:System.Type, nodePos:Vector2)
    + <<override>> ExecuteForward() : void
    + <<override>> ExecuteReverse() : void
    + <<override>> ToString() : string
}
class DestroyNodeActionData {
    + DestroyNodeActionData(node:ParentNode)
    + DestroyNodeActionData(nodeId:int, nodeType:System.Type, nodePos:Vector2)
    + <<override>> ExecuteForward() : void
    + <<override>> ExecuteReverse() : void
    + <<override>> ToString() : string
}
class MoveNodeActionData {
    + MoveNodeActionData(nodeId:int, nodeInitialPos:Vector2, nodeFinalPos:Vector2)
    + <<override>> ExecuteForward() : void
    + <<override>> ExecuteReverse() : void
    + <<override>> ToString() : string
}
class CreateConnectionActionData {
    + CreateConnectionActionData(inputNodeId:int, inputPortId:int, outputNodeId:int, outputPortId:int)
    + <<override>> ExecuteForward() : void
    + <<override>> ExecuteReverse() : void
    + <<override>> ToString() : string
}
class DestroyConnectionActionData {
    + DestroyConnectionActionData(inputNodeId:int, inputPortId:int, outputNodeId:int, outputPortId:int)
    + <<override>> ExecuteForward() : void
    + <<override>> ExecuteReverse() : void
    + <<override>> ToString() : string
}
class MoveInputConnectionActionData {
    + MoveInputConnectionActionData(oldInputNodeId:int, oldInputPortId:int, newInputNodeId:int, newInputPortId:int, outputNodeId:int, outputPortId:int)
    + <<override>> ExecuteForward() : void
    + <<override>> ExecuteReverse() : void
    + <<override>> ToString() : string
}
class MoveOutputConnectionActionData {
    + MoveOutputConnectionActionData(inputNodeId:int, inputPortId:int, newOutputNodeId:int, newOutputPortId:int, oldOutputNodeId:int, oldOutputPortId:int)
    + <<override>> ExecuteForward() : void
    + <<override>> ExecuteReverse() : void
    + <<override>> ToString() : string
}
class CreateNewGraphActionData {
    + CreateNewGraphActionData(name:string)
    + <<override>> ExecuteForward() : void
}
class ChangeNodePropertiesActionData {
    + ChangeNodePropertiesActionData(node:ParentNode, originalProperties:string)
    + ChangeNodePropertiesActionData(nodeId:int, originalProperties:string)
    + <<override>> ExecuteForward() : void
    + <<override>> ExecuteReverse() : void
    + <<override>> ToString() : string
}
ActionData <|-- CreateNodeActionData
ActionData <|-- DestroyNodeActionData
ActionData <|-- MoveNodeActionData
ActionData <|-- CreateConnectionActionData
ActionData <|-- DestroyConnectionActionData
ActionData <|-- MoveInputConnectionActionData
ActionData <|-- MoveOutputConnectionActionData
ActionData <|-- CreateNewGraphActionData
ActionData <|-- ChangeNodePropertiesActionData
@enduml
