@startuml
class TFHCCompareNotEqual <<sealed>> {
    + <<override>> GenerateShaderForOutput(outputId:int, dataCollector:MasterNodeDataCollector, ignoreLocalvar:bool) : string
}
TFHCStub <|-- TFHCCompareNotEqual
@enduml
