@startuml
class NodeGrid {
    + NodeGrid()
    + AddNodeToGrid(node:ParentNode) : void
    + RemoveNodeFromGrid(node:ParentNode, useCachedPos:bool) : void
    + DebugLimits() : void
    + GetNodesOn(pos:Vector2) : List<ParentNode>
    + GetNodesOn(x:int, y:int) : List<ParentNode>
    + DrawGrid(drawInfo:DrawInfo) : void
    + Destroy() : void
    + MaxNodeDist : float <<get>>
}
@enduml
