@startuml
class GetLocalVarNode {
    + <<override>> SetPreviewInputs() : void
    + <<override>> DrawProperties() : void
    + <<override>> Destroy() : void
    + <<override>> Draw(drawInfo:DrawInfo) : void
    + <<override>> OnNodeLogicUpdate(drawInfo:DrawInfo) : void
    + <<override>> OnNodeRepaint(drawInfo:DrawInfo) : void
    UpdateFromSelected() : void
    UpdateLocalVar() : void
    + ResetReference() : void
    + <<override>> GenerateShaderForOutput(outputId:int, dataCollector:MasterNodeDataCollector, ignoreLocalvar:bool) : string
    + <<override>> ReadFromString(nodeParams:string[]) : void
    + <<override>> WriteToString(nodeInfo:string, connectionsInfo:string) : void
    + <<override>> OnNodeDoubleClicked(currentMousePos2D:Vector2) : void
    + <<override>> RefreshExternalReferences() : void
    + <<override>> ActivateNode(signalGenNodeId:int, signalGenPortId:int, signalGenNodeType:System.Type) : void
    + <<override>> DeactivateNode(deactivatedPort:int, forceComplete:bool) : void
    + <<override>> OnNodeSelected(value:bool) : void
}
ParentNode <|-- GetLocalVarNode
GetLocalVarNode --> "CurrentSelected" RegisterLocalVarNode
@enduml
