@startuml
enum eVectorFromMatrixMode {
    Row,
    Column,
}
class VectorFromMatrixNode <<sealed>> {
    + <<override>> OnInputPortConnected(portId:int, otherNodeId:int, otherPortId:int, activateNode:bool) : void
    + <<override>> OnConnectedOutputNodeChanges(inputPortId:int, otherNodeId:int, otherPortId:int, name:string, type:WirePortDataType) : void
    UpdatePorts() : void
    + <<override>> GenerateShaderForOutput(outputId:int, dataCollector:MasterNodeDataCollector, ignoreLocalvar:bool) : string
    + <<override>> DrawProperties() : void
    + <<override>> WriteToString(nodeInfo:string, connectionsInfo:string) : void
    + <<override>> ReadFromString(nodeParams:string[]) : void
}
ParentNode <|-- VectorFromMatrixNode
@enduml
